<?xml version="1.0" encoding="utf-8"?>
<!-- Generator: Adobe Illustrator 22.0.0, SVG Export Plug-In . SVG Version: 6.00 Build 0)  -->
<svg version="1.1" id="Layer_1" xmlns="http://www.w3.org/2000/svg" xmlns:xlink="http://www.w3.org/1999/xlink" x="0px" y="0px"
	 viewBox="0 0 1080 1080" style="enable-background:new 0 0 1080 1080;" xml:space="preserve">
<style type="text/css">
	.st0{fill:#02C2BF;}
</style>
<path class="st0" d="M736.4,490.9c81.5,0,146.8-65.8,146.8-147.3s-65.3-147.3-146.8-147.3s-147.3,65.8-147.3,147.3
	S654.9,490.9,736.4,490.9z M343.6,490.9c81.5,0,146.8-65.8,146.8-147.3s-65.3-147.3-146.8-147.3s-147.3,65.8-147.3,147.3
	S262.1,490.9,343.6,490.9z M343.6,589.1C229.3,589.1,0,646.5,0,760.9v122.7h687.3V760.9C687.3,646.5,458,589.1,343.6,589.1z
	 M736.4,589.1c-14.2,0-30.4,1-47.6,2.5c56.9,41.2,96.7,96.7,96.7,169.4v122.7H1080V760.9C1080,646.5,850.7,589.1,736.4,589.1z"/>
</svg>
