<?xml version="1.0" encoding="utf-8"?>
<!-- Generator: Adobe Illustrator 22.0.0, SVG Export Plug-In . SVG Version: 6.00 Build 0)  -->
<svg version="1.1" id="Layer_1" xmlns="http://www.w3.org/2000/svg" xmlns:xlink="http://www.w3.org/1999/xlink" x="0px" y="0px"
	 viewBox="0 0 1080 1080" style="enable-background:new 0 0 1080 1080;" xml:space="preserve">
<style type="text/css">
	.st0{fill:#02C2BF;}
</style>
<g>
	<path class="st0" d="M1046.3,958.5c-87.8-162-175.5-135-263.3-148.5c0,0,0,0-6.8,0L540,985.5L303.8,810c0,0,0,0-6.8,0
		c-94.5,6.8-175.5-13.5-263.3,148.5c-13.5,27-27,74.3-33.8,121.5h1080C1073.3,1032.8,1059.8,985.5,1046.3,958.5z"/>
	<path class="st0" d="M540,0C183.9,0,242.2,358,247,384.3c0.1,0.9,0.2,1.5,0.2,1.5c6.5,57.7,18,119,29.5,161
		C283.4,594,297,621,297,621c54,87.8,121.4,67.6,121.4,121.6c0,20.2-13.4,33.7-33.7,47.2L540,904.6l155.2-114.8
		c-20.2-13.6-33.7-27-33.7-47.2c0-54,67.4-33.8,121.4-121.6c0,0,13.6-27,20.2-74.2c11.5-41.9,23-103.3,29.5-161c0,0,0.1-0.6,0.2-1.5
		C837.8,358,896.1,0,540,0z"/>
</g>
</svg>
