<?xml version="1.0" encoding="utf-8"?>
<!-- Generator: Adobe Illustrator 22.0.0, SVG Export Plug-In . SVG Version: 6.00 Build 0)  -->
<svg version="1.1" id="Layer_1" xmlns="http://www.w3.org/2000/svg" xmlns:xlink="http://www.w3.org/1999/xlink" x="0px" y="0px"
	 viewBox="0 0 1080 1080" style="enable-background:new 0 0 1080 1080;" xml:space="preserve">
<style type="text/css">
	.st0{fill:#02C2BF;}
</style>
<g>
	<path class="st0" d="M625,1029.3l-7.9,36.1c-1.9,8.9-9.8,15.2-18.9,15.2h-92c-9.1,0-17-6.3-18.9-15.2l-3.9-17.8
		c-2.3-10.7,4.7-21.3,15.5-23.2l103.8-18.3C616.3,1003.7,628,1015.9,625,1029.3z"/>
	<path class="st0" d="M654.4,895.3l-11.5,52.5c-1.7,7.7-7.8,13.5-15.5,14.9l-138.2,24.4c-10.2,1.8-20.1-4.8-22.3-14.9l-9.8-44.9
		c-2.3-10.6,4.5-21,15.1-23.1l159.5-31.9C645.4,869.5,657.4,881.7,654.4,895.3z"/>
	<path class="st0" d="M680.4,776.4l-8,36.6c-1.6,7.5-7.6,13.3-15.1,14.8l-193.9,38.8c-10.3,2.1-20.4-4.5-22.7-14.8l-8.2-37.2
		c-2.3-10.7,4.7-21.2,15.4-23.2L658,753.2C671.6,750.7,683.3,762.9,680.4,776.4z"/>
	<path class="st0" d="M704.8,664.8l-6.6,29.8c-1.7,7.6-7.8,13.5-15.4,14.9l-244.5,44.4c-10.3,1.9-20.1-4.7-22.4-14.9l-16.2-74.1
		c7.3-9.7,10.1-13.4,17.4-23.2c0.1,0,0.2,0,0.2,0c8.9-0.7,17.9-1.2,27-1.7c5.2-0.2,10.3-0.5,15.5-0.8c10.5-0.4,21.2-0.8,32-1.1
		c4.3-0.1,8.7-0.3,13-0.4c15.4-0.3,31.2-0.5,47.3-0.5c15.5,0,30.4,0.2,45.1,0.4c7.3,0.1,14.4,0.3,21.5,0.5
		c6.6,0.2,13.1,0.4,19.7,0.7c9.6,0.3,19.1,0.9,28.5,1.3c3,0.2,6.2,0.3,9.2,0.5c3.7,0.2,7.4,0.5,11.1,0.7
		C694.7,651.2,697.4,654.8,704.8,664.8z"/>
	<path class="st0" d="M957.3,587.5c-3.5,15.4-12.8,28.4-26.2,36.6c-13.8,8.5-30.2,11-46.3,7c-39.1-9.7-81.6-16.9-128.3-22.3v-0.2
		l-11.1-1.1c-57.1-6-120.6-8.9-193.3-8.9c-17.4,0-34.3,0.2-50.8,0.5c-4.7,0.1-9,0.3-13.6,0.5c-11.6,0.3-23.2,0.7-34.5,1.2
		c-6.5,0.3-12.9,0.8-19.3,1.2c-8.7,0.4-17.4,1-25.9,1.6c-7.9,0.5-15.5,1.3-23.2,2c-5,0.4-10.3,0.9-15.3,1.3l-21.5,2.2l0.1,0.3
		c-54.9,6.4-104.7,15.5-149.7,27.9c-15.8,4.3-32.2,1.7-46.2-7.2c-14.1-8.9-23.9-23.6-26.7-40c-10-57.6-18.5-116.2-26.7-172.9
		c-3.6-24-7.1-47.9-10.5-71.6c-19.6-129.4,20.2-280.9,152.8-328C313-7.8,417,17.4,488.9,38.6c38.5,11.4,44.5,11.4,71.9,0.8
		c5.3-2.1,11.7-4.6,20.2-7.5c2.7-1,5.4-2.1,8.1-3.3l3-1.3c95.6-39.5,200.5-34.8,273.9,12.5c60,38.5,100.3,87.4,113.6,137.7
		C1013.2,304.5,988.7,449.6,957.3,587.5z"/>
</g>
</svg>
